{
  "$schema" : "http://wso2.org/json-schema/wso2-data-mapper-v5.0.0/schema#",
  "id" : "http://wso2jsonschema.org",
  "title" : "soapenv:Envelope",
  "type" : "object",
  "properties" : {
    "soapenv:Body" : {
      "id" : "http://wso2jsonschema.org/soapenv:Body",
      "type" : "object",
      "properties" : {
        "root:movie" : {
          "id" : "http://wso2jsonschema.org/soapenv:Body/root:movie",
          "type" : "object",
          "properties" : {
            "Title" : {
              "id" : "http://wso2jsonschema.org/soapenv:Body/root:movie/Title",
              "type" : "string"
            },
            "Year" : {
              "id" : "http://wso2jsonschema.org/soapenv:Body/root:movie/Year",
              "type" : "number"
            },
            "Rated" : {
              "id" : "http://wso2jsonschema.org/soapenv:Body/root:movie/Rated",
              "type" : "string"
            },
            "Released" : {
              "id" : "http://wso2jsonschema.org/soapenv:Body/root:movie/Released",
              "type" : "string"
            },
            "Runtime" : {
              "id" : "http://wso2jsonschema.org/soapenv:Body/root:movie/Runtime",
              "type" : "string"
            },
            "Genre" : {
              "id" : "http://wso2jsonschema.org/soapenv:Body/root:movie/Genre",
              "type" : "string"
            },
            "Director" : {
              "id" : "http://wso2jsonschema.org/soapenv:Body/root:movie/Director",
              "type" : "string"
            },
            "Writer" : {
              "id" : "http://wso2jsonschema.org/soapenv:Body/root:movie/Writer",
              "type" : "string"
            },
            "Actors" : {
              "id" : "http://wso2jsonschema.org/soapenv:Body/root:movie/Actors",
              "type" : "string"
            },
            "Plot" : {
              "id" : "http://wso2jsonschema.org/soapenv:Body/root:movie/Plot",
              "type" : "string"
            },
            "Language" : {
              "id" : "http://wso2jsonschema.org/soapenv:Body/root:movie/Language",
              "type" : "string"
            },
            "Country" : {
              "id" : "http://wso2jsonschema.org/soapenv:Body/root:movie/Country",
              "type" : "string"
            },
            "Awards" : {
              "id" : "http://wso2jsonschema.org/soapenv:Body/root:movie/Awards",
              "type" : "string"
            },
            "Poster" : {
              "id" : "http://wso2jsonschema.org/soapenv:Body/root:movie/Poster",
              "type" : "string"
            },
            "Metascore" : {
              "id" : "http://wso2jsonschema.org/soapenv:Body/root:movie/Metascore",
              "type" : "number"
            },
            "imdbRating" : {
              "id" : "http://wso2jsonschema.org/soapenv:Body/root:movie/imdbRating",
              "type" : "number"
            },
            "imdbVotes" : {
              "id" : "http://wso2jsonschema.org/soapenv:Body/root:movie/imdbVotes",
              "type" : "string"
            },
            "imdbID" : {
              "id" : "http://wso2jsonschema.org/soapenv:Body/root:movie/imdbID",
              "type" : "string"
            },
            "Type" : {
              "id" : "http://wso2jsonschema.org/soapenv:Body/root:movie/Type",
              "type" : "string"
            },
            "Response" : {
              "id" : "http://wso2jsonschema.org/soapenv:Body/root:movie/Response",
              "type" : "boolean"
            },
            "adult" : {
              "id" : "http://wso2jsonschema.org/soapenv:Body/root:movie/adult",
              "type" : "boolean"
            },
            "backdrop_path" : {
              "id" : "http://wso2jsonschema.org/soapenv:Body/root:movie/backdrop_path",
              "type" : "string"
            },
            "belongs_to_collection" : {
              "id" : "http://wso2jsonschema.org/soapenv:Body/root:movie/belongs_to_collection",
              "type" : "object",
              "nullable" : "true",
              "properties" : {
                "id" : {
                  "id" : "http://wso2jsonschema.org/soapenv:Body/root:movie/belongs_to_collection/id",
                  "type" : "number"
                },
                "name" : {
                  "id" : "http://wso2jsonschema.org/soapenv:Body/root:movie/belongs_to_collection/name",
                  "type" : "string"
                },
                "poster_path" : {
                  "id" : "http://wso2jsonschema.org/soapenv:Body/root:movie/belongs_to_collection/poster_path",
                  "type" : "string"
                },
                "backdrop_path" : {
                  "id" : "http://wso2jsonschema.org/soapenv:Body/root:movie/belongs_to_collection/backdrop_path",
                  "type" : "string"
                }
              }
            },
            "budget" : {
              "id" : "http://wso2jsonschema.org/soapenv:Body/root:movie/budget",
              "type" : "number"
            },
            "genres" : {
              "id" : "http://wso2jsonschema.org/soapenv:Body/root:movie/genres",
              "type" : "array",
              "items" : [ {
                "id" : "http://wso2jsonschema.org/soapenv:Body/root:movie/genres/0",
                "type" : "object",
                "properties" : {
                  "id" : {
                    "id" : "http://wso2jsonschema.org/soapenv:Body/root:movie/genres/0/id",
                    "type" : "number"
                  },
                  "name" : {
                    "id" : "http://wso2jsonschema.org/soapenv:Body/root:movie/genres/0/name",
                    "type" : "string"
                  }
                }
              } ]
            },
            "homepage" : {
              "id" : "http://wso2jsonschema.org/soapenv:Body/root:movie/homepage",
              "type" : "string"
            },
            "id" : {
              "id" : "http://wso2jsonschema.org/soapenv:Body/root:movie/id",
              "type" : "number"
            },
            "imdb_id" : {
              "id" : "http://wso2jsonschema.org/soapenv:Body/root:movie/imdb_id",
              "type" : "string"
            },
            "original_language" : {
              "id" : "http://wso2jsonschema.org/soapenv:Body/root:movie/original_language",
              "type" : "string"
            },
            "original_title" : {
              "id" : "http://wso2jsonschema.org/soapenv:Body/root:movie/original_title",
              "type" : "string"
            },
            "overview" : {
              "id" : "http://wso2jsonschema.org/soapenv:Body/root:movie/overview",
              "type" : "string"
            },
            "popularity" : {
              "id" : "http://wso2jsonschema.org/soapenv:Body/root:movie/popularity",
              "type" : "number"
            },
            "poster_path" : {
              "id" : "http://wso2jsonschema.org/soapenv:Body/root:movie/poster_path",
              "type" : "string"
            },
            "production_companies" : {
              "id" : "http://wso2jsonschema.org/soapenv:Body/root:movie/production_companies",
              "type" : "array",
              "items" : [ {
                "id" : "http://wso2jsonschema.org/soapenv:Body/root:movie/production_companies/0",
                "type" : "object",
                "properties" : {
                  "name" : {
                    "id" : "http://wso2jsonschema.org/soapenv:Body/root:movie/production_companies/0/name",
                    "type" : "string"
                  },
                  "id" : {
                    "id" : "http://wso2jsonschema.org/soapenv:Body/root:movie/production_companies/0/id",
                    "type" : "number"
                  }
                }
              } ]
            },
            "production_countries" : {
              "id" : "http://wso2jsonschema.org/soapenv:Body/root:movie/production_countries",
              "type" : "object",
              "properties" : {
                "iso_3166_1" : {
                  "id" : "http://wso2jsonschema.org/soapenv:Body/root:movie/production_countries/iso_3166_1",
                  "type" : "string"
                },
                "name" : {
                  "id" : "http://wso2jsonschema.org/soapenv:Body/root:movie/production_countries/name",
                  "type" : "string"
                }
              }
            },
            "release_date" : {
              "id" : "http://wso2jsonschema.org/soapenv:Body/root:movie/release_date",
              "type" : "string"
            },
            "revenue" : {
              "id" : "http://wso2jsonschema.org/soapenv:Body/root:movie/revenue",
              "type" : "number"
            },
            "runtime" : {
              "id" : "http://wso2jsonschema.org/soapenv:Body/root:movie/runtime",
              "type" : "number"
            },
            "spoken_languages" : {
              "id" : "http://wso2jsonschema.org/soapenv:Body/root:movie/spoken_languages",
              "type" : "array",
              "items" : [ {
                "id" : "http://wso2jsonschema.org/soapenv:Body/root:movie/spoken_languages/0",
                "type" : "object",
                "properties" : {
                  "iso_639_1" : {
                    "id" : "http://wso2jsonschema.org/soapenv:Body/root:movie/spoken_languages/0/iso_639_1",
                    "type" : "string"
                  },
                  "name" : {
                    "id" : "http://wso2jsonschema.org/soapenv:Body/root:movie/spoken_languages/0/name",
                    "type" : "string"
                  }
                }
              } ]
            },
            "status" : {
              "id" : "http://wso2jsonschema.org/soapenv:Body/root:movie/status",
              "type" : "string"
            },
            "tagline" : {
              "id" : "http://wso2jsonschema.org/soapenv:Body/root:movie/tagline",
              "type" : "string"
            },
            "title" : {
              "id" : "http://wso2jsonschema.org/soapenv:Body/root:movie/title",
              "type" : "string"
            },
            "video" : {
              "id" : "http://wso2jsonschema.org/soapenv:Body/root:movie/video",
              "type" : "boolean"
            },
            "vote_average" : {
              "id" : "http://wso2jsonschema.org/soapenv:Body/root:movie/vote_average",
              "type" : "number"
            },
            "vote_count" : {
              "id" : "http://wso2jsonschema.org/soapenv:Body/root:movie/vote_count",
              "type" : "number"
            },
            "casts" : {
              "id" : "http://wso2jsonschema.org/soapenv:Body/root:movie/casts",
              "type" : "object",
              "properties" : {
                "cast" : {
                  "id" : "http://wso2jsonschema.org/soapenv:Body/root:movie/casts/cast",
                  "type" : "array",
                  "items" : [ {
                    "id" : "http://wso2jsonschema.org/soapenv:Body/root:movie/casts/cast/0",
                    "type" : "object",
                    "properties" : {
                      "cast_id" : {
                        "id" : "http://wso2jsonschema.org/soapenv:Body/root:movie/casts/cast/0/cast_id",
                        "type" : "number"
                      },
                      "character" : {
                        "id" : "http://wso2jsonschema.org/soapenv:Body/root:movie/casts/cast/0/character",
                        "type" : "string"
                      },
                      "credit_id" : {
                        "id" : "http://wso2jsonschema.org/soapenv:Body/root:movie/casts/cast/0/credit_id",
                        "type" : "string"
                      },
                      "id" : {
                        "id" : "http://wso2jsonschema.org/soapenv:Body/root:movie/casts/cast/0/id",
                        "type" : "number"
                      },
                      "name" : {
                        "id" : "http://wso2jsonschema.org/soapenv:Body/root:movie/casts/cast/0/name",
                        "type" : "string"
                      },
                      "order" : {
                        "id" : "http://wso2jsonschema.org/soapenv:Body/root:movie/casts/cast/0/order",
                        "type" : "number"
                      },
                      "profile_path" : {
                        "id" : "http://wso2jsonschema.org/soapenv:Body/root:movie/casts/cast/0/profile_path",
                        "type" : "string"
                      }
                    }
                  } ]
                },
                "crew" : {
                  "id" : "http://wso2jsonschema.org/soapenv:Body/root:movie/casts/crew",
                  "type" : "array",
                  "items" : [ {
                    "id" : "http://wso2jsonschema.org/soapenv:Body/root:movie/casts/crew/0",
                    "type" : "object",
                    "properties" : {
                      "credit_id" : {
                        "id" : "http://wso2jsonschema.org/soapenv:Body/root:movie/casts/crew/0/credit_id",
                        "type" : "string"
                      },
                      "department" : {
                        "id" : "http://wso2jsonschema.org/soapenv:Body/root:movie/casts/crew/0/department",
                        "type" : "string"
                      },
                      "id" : {
                        "id" : "http://wso2jsonschema.org/soapenv:Body/root:movie/casts/crew/0/id",
                        "type" : "number"
                      },
                      "job" : {
                        "id" : "http://wso2jsonschema.org/soapenv:Body/root:movie/casts/crew/0/job",
                        "type" : "string"
                      },
                      "name" : {
                        "id" : "http://wso2jsonschema.org/soapenv:Body/root:movie/casts/crew/0/name",
                        "type" : "string"
                      },
                      "profile_path" : {
                        "id" : "http://wso2jsonschema.org/soapenv:Body/root:movie/casts/crew/0/profile_path",
                        "type" : "null",
                        "nullable" : "true"
                      }
                    }
                  } ]
                }
              }
            },
            "images" : {
              "id" : "http://wso2jsonschema.org/soapenv:Body/root:movie/images",
              "type" : "object",
              "properties" : {
                "backdrops" : {
                  "id" : "http://wso2jsonschema.org/soapenv:Body/root:movie/images/backdrops",
                  "type" : "array",
                  "items" : [ {
                    "id" : "http://wso2jsonschema.org/soapenv:Body/root:movie/images/backdrops/0",
                    "type" : "object",
                    "properties" : {
                      "aspect_ratio" : {
                        "id" : "http://wso2jsonschema.org/soapenv:Body/root:movie/images/backdrops/0/aspect_ratio",
                        "type" : "number"
                      },
                      "file_path" : {
                        "id" : "http://wso2jsonschema.org/soapenv:Body/root:movie/images/backdrops/0/file_path",
                        "type" : "string"
                      },
                      "height" : {
                        "id" : "http://wso2jsonschema.org/soapenv:Body/root:movie/images/backdrops/0/height",
                        "type" : "number"
                      },
                      "iso_639_1" : {
                        "id" : "http://wso2jsonschema.org/soapenv:Body/root:movie/images/backdrops/0/iso_639_1",
                        "type" : "null",
                        "nullable" : "true"
                      },
                      "vote_average" : {
                        "id" : "http://wso2jsonschema.org/soapenv:Body/root:movie/images/backdrops/0/vote_average",
                        "type" : "number"
                      },
                      "vote_count" : {
                        "id" : "http://wso2jsonschema.org/soapenv:Body/root:movie/images/backdrops/0/vote_count",
                        "type" : "number"
                      },
                      "width" : {
                        "id" : "http://wso2jsonschema.org/soapenv:Body/root:movie/images/backdrops/0/width",
                        "type" : "number"
                      }
                    }
                  } ]
                },
                "posters" : {
                  "id" : "http://wso2jsonschema.org/soapenv:Body/root:movie/images/posters",
                  "type" : "array",
                  "items" : [ {
                    "id" : "http://wso2jsonschema.org/soapenv:Body/root:movie/images/posters/0",
                    "type" : "object",
                    "properties" : {
                      "aspect_ratio" : {
                        "id" : "http://wso2jsonschema.org/soapenv:Body/root:movie/images/posters/0/aspect_ratio",
                        "type" : "number"
                      },
                      "file_path" : {
                        "id" : "http://wso2jsonschema.org/soapenv:Body/root:movie/images/posters/0/file_path",
                        "type" : "string"
                      },
                      "height" : {
                        "id" : "http://wso2jsonschema.org/soapenv:Body/root:movie/images/posters/0/height",
                        "type" : "number"
                      },
                      "iso_639_1" : {
                        "id" : "http://wso2jsonschema.org/soapenv:Body/root:movie/images/posters/0/iso_639_1",
                        "type" : "string"
                      },
                      "vote_average" : {
                        "id" : "http://wso2jsonschema.org/soapenv:Body/root:movie/images/posters/0/vote_average",
                        "type" : "number"
                      },
                      "vote_count" : {
                        "id" : "http://wso2jsonschema.org/soapenv:Body/root:movie/images/posters/0/vote_count",
                        "type" : "number"
                      },
                      "width" : {
                        "id" : "http://wso2jsonschema.org/soapenv:Body/root:movie/images/posters/0/width",
                        "type" : "number"
                      }
                    }
                  } ]
                }
              }
            }
          }
        }
      }
    }
  },
  "namespaces" : [ {
    "prefix" : "soapenv",
    "url" : "http://schemas.xmlsoap.org/soap/envelope/"
  }, {
    "prefix" : "root",
    "url" : "www.wso2esb.com"
  } ]
}