{
  "$schema" : "http://wso2.org/json-schema/wso2-data-mapper-v5.0.0/schema#",
  "id" : "http://wso2jsonschema.org",
  "title" : "root",
  "type" : "object",
  "properties" : {
    "movie" : {
      "id" : "http://wso2jsonschema.org/movie",
      "type" : "object",
      "properties" : {
        "title" : {
          "id" : "http://wso2jsonschema.org/movie/title",
          "type" : "string"
        },
        "set" : {
          "id" : "http://wso2jsonschema.org/movie/set",
          "type" : "string"
        },
        "sorttitle" : {
          "id" : "http://wso2jsonschema.org/movie/sorttitle",
          "type" : "string"
        },
        "id" : {
          "id" : "http://wso2jsonschema.org/movie/id",
          "type" : "string"
        },
        "runtime" : {
          "id" : "http://wso2jsonschema.org/movie/runtime",
          "type" : "string"
        },
        "year" : {
          "id" : "http://wso2jsonschema.org/movie/year",
          "type" : "number"
        },
        "mpaa" : {
          "id" : "http://wso2jsonschema.org/movie/mpaa",
          "type" : "string"
        },
        "originaltitle" : {
          "id" : "http://wso2jsonschema.org/movie/originaltitle",
          "type" : "string"
        },
        "plot" : {
          "id" : "http://wso2jsonschema.org/movie/plot",
          "type" : "string"
        },
        "tagline" : {
          "id" : "http://wso2jsonschema.org/movie/tagline",
          "type" : "string"
        },
        "premiered" : {
          "id" : "http://wso2jsonschema.org/movie/premiered",
          "type" : "string"
        },
        "rating" : {
          "id" : "http://wso2jsonschema.org/movie/rating",
          "type" : "boolean"
        },
        "votes" : {
          "id" : "http://wso2jsonschema.org/movie/votes",
          "type" : "string"
        },
        "genre" : {
          "id" : "http://wso2jsonschema.org/movie/genre",
          "type" : "array",
          "items" : [ {
            "id" : "http://wso2jsonschema.org/movie/genre/0",
            "type" : "string"
          } ]
        },
        "actor" : {
          "id" : "http://wso2jsonschema.org/movie/actor",
          "type" : "array",
          "items" : [ {
            "id" : "http://wso2jsonschema.org/movie/actor/0",
            "type" : "object",
            "properties" : {
              "name" : {
                "id" : "http://wso2jsonschema.org/movie/actor/0/name",
                "type" : "string"
              },
              "role" : {
                "id" : "http://wso2jsonschema.org/movie/actor/0/role",
                "type" : "string"
              },
              "thumb" : {
                "id" : "http://wso2jsonschema.org/movie/actor/0/thumb",
                "type" : "string"
              }
            }
          } ]
        },
        "director" : {
          "id" : "http://wso2jsonschema.org/movie/director",
          "type" : "string"
        },
        "credits" : {
          "id" : "http://wso2jsonschema.org/movie/credits",
          "type" : "array",
          "items" : [ {
            "id" : "http://wso2jsonschema.org/movie/credits/0",
            "type" : "string"
          } ]
        }
      }
    }
  }
}